{
  "current_page": 1,
  "data": [
    {
      "id": 61,
      "porcentagem": "5.80",
      "valor": "5000.00",
      "tempo_contrato": 6,
      "inicio_mes": "2020-09-11",
      "final_mes": "2021-03-11",
      "ativo": true,
      "user_id": 3,
      "created_at": "2020-09-11 15:11:31",
      "updated_at": "2020-09-11 15:11:31",
      "tipo_contrato": "Simples",
      "numero_contrato": "610911",
      "agendamento_relatorio": null,
      "valor_atualizado": "5000.00",
      "user": {
        "id": 3,
        "name": "CARLOS ROBERTO SANTANA",
        "email": "carlynhos6@gmail.com",
        "email_verified_at": null,
        "ativo": true,
        "user_parent_id": 15,
        "rg": "1004069",
        "data_emissao": "2018-07-25 00:00:00",
        "orgao_emissor": "SSP/SE",
        "cpf": "51808013549",
        "data_nascimento": "1972-03-28 00:00:00",
        "estado_civil": "Casado",
        "nome_mae": "MARIA JOSE SANTANA",
        "genero": "Masculino",
        "profissao": "EMPRESARIO",
        "rua": "Avenida Maranh\u00e3o",
        "numero": "2816",
        "bairro": "Santos Dumont",
        "cidade": "Aracaju",
        "estado": "SE",
        "complemento": "de 1661/1662 ao fim",
        "cep": "49087-420",
        "telefone": "7900000000",
        "celular": "79999320409",
        "created_at": "2020-06-08 18:55:19",
        "updated_at": "2020-06-08 18:58:37",
        "role_id": 7,
        "avatar": null
      }
    },
    {
      "id": 62,
      "porcentagem": "5.80",
      "valor": "10000.00",
      "tempo_contrato": 6,
      "inicio_mes": "2020-09-11",
      "final_mes": "2021-03-11",
      "ativo": true,
      "user_id": 3,
      "created_at": "2020-09-11 15:11:51",
      "updated_at": "2020-09-11 15:11:51",
      "tipo_contrato": "Simples",
      "numero_contrato": "620911",
      "agendamento_relatorio": null,
      "valor_atualizado": "10000.00",
      "user": {
        "id": 3,
        "name": "CARLOS ROBERTO SANTANA",
        "email": "carlynhos6@gmail.com",
        "email_verified_at": null,
        "ativo": true,
        "user_parent_id": 15,
        "rg": "1004069",
        "data_emissao": "2018-07-25 00:00:00",
        "orgao_emissor": "SSP/SE",
        "cpf": "51808013549",
        "data_nascimento": "1972-03-28 00:00:00",
        "estado_civil": "Casado",
        "nome_mae": "MARIA JOSE SANTANA",
        "genero": "Masculino",
        "profissao": "EMPRESARIO",
        "rua": "Avenida Maranh\u00e3o",
        "numero": "2816",
        "bairro": "Santos Dumont",
        "cidade": "Aracaju",
        "estado": "SE",
        "complemento": "de 1661/1662 ao fim",
        "cep": "49087-420",
        "telefone": "7900000000",
        "celular": "79999320409",
        "created_at": "2020-06-08 18:55:19",
        "updated_at": "2020-06-08 18:58:37",
        "role_id": 7,
        "avatar": null
      }
    },
    {
      "id": 63,
      "porcentagem": "5.80",
      "valor": "10000.00",
      "tempo_contrato": 6,
      "inicio_mes": "2020-09-11",
      "final_mes": "2021-03-11",
      "ativo": true,
      "user_id": 3,
      "created_at": "2020-09-11 15:12:00",
      "updated_at": "2020-09-11 15:12:00",
      "tipo_contrato": "Simples",
      "numero_contrato": "630911",
      "agendamento_relatorio": null,
      "valor_atualizado": "10000.00",
      "user": {
        "id": 3,
        "name": "CARLOS ROBERTO SANTANA",
        "email": "carlynhos6@gmail.com",
        "email_verified_at": null,
        "ativo": true,
        "user_parent_id": 15,
        "rg": "1004069",
        "data_emissao": "2018-07-25 00:00:00",
        "orgao_emissor": "SSP/SE",
        "cpf": "51808013549",
        "data_nascimento": "1972-03-28 00:00:00",
        "estado_civil": "Casado",
        "nome_mae": "MARIA JOSE SANTANA",
        "genero": "Masculino",
        "profissao": "EMPRESARIO",
        "rua": "Avenida Maranh\u00e3o",
        "numero": "2816",
        "bairro": "Santos Dumont",
        "cidade": "Aracaju",
        "estado": "SE",
        "complemento": "de 1661/1662 ao fim",
        "cep": "49087-420",
        "telefone": "7900000000",
        "celular": "79999320409",
        "created_at": "2020-06-08 18:55:19",
        "updated_at": "2020-06-08 18:58:37",
        "role_id": 7,
        "avatar": null
      }
    },
    {
      "id": 13,
      "porcentagem": "5.80",
      "valor": "5000.00",
      "tempo_contrato": 12,
      "inicio_mes": "2020-06-26",
      "final_mes": "2021-06-26",
      "ativo": true,
      "user_id": 5,
      "created_at": "2020-06-26 21:24:29",
      "updated_at": "2020-09-02 12:40:31",
      "tipo_contrato": "Simples",
      "numero_contrato": "130000",
      "agendamento_relatorio": "2020-10-01 00:00:00",
      "valor_atualizado": "5618.67",
      "user": {
        "id": 5,
        "name": "RAY FELICIO SANTANA",
        "email": "rayfelicio1@gmail.com",
        "email_verified_at": null,
        "ativo": true,
        "user_parent_id": 3,
        "rg": "35313773",
        "data_emissao": "2019-01-09 00:00:00",
        "orgao_emissor": "SSP/SE",
        "cpf": "07350167555",
        "data_nascimento": "1997-07-19 00:00:00",
        "estado_civil": "Solteiro",
        "nome_mae": "ANA PAULA FELICIO DA SILVA",
        "genero": "Masculino",
        "profissao": "ESTUDANTE",
        "rua": "Avenida Maranh\u00e3o",
        "numero": "2816",
        "bairro": "Santos Dumont",
        "cidade": "Aracaju",
        "estado": "SE",
        "complemento": "CASA 1",
        "cep": "49087-420",
        "telefone": "7999320409",
        "celular": "79999320409",
        "created_at": "2020-06-08 20:06:57",
        "updated_at": "2020-06-08 20:45:55",
        "role_id": 6,
        "avatar": null
      }
    },
    {
      "id": 66,
      "porcentagem": "5.80",
      "valor": "10000.00",
      "tempo_contrato": 12,
      "inicio_mes": "2020-09-21",
      "final_mes": "2021-09-21",
      "ativo": false,
      "user_id": 5,
      "created_at": "2020-09-21 21:49:26",
      "updated_at": "2020-09-21 21:49:26",
      "tipo_contrato": "Simples",
      "numero_contrato": "660921",
      "agendamento_relatorio": null,
      "valor_atualizado": "10000.00",
      "user": {
        "id": 5,
        "name": "RAY FELICIO SANTANA",
        "email": "rayfelicio1@gmail.com",
        "email_verified_at": null,
        "ativo": true,
        "user_parent_id": 3,
        "rg": "35313773",
        "data_emissao": "2019-01-09 00:00:00",
        "orgao_emissor": "SSP/SE",
        "cpf": "07350167555",
        "data_nascimento": "1997-07-19 00:00:00",
        "estado_civil": "Solteiro",
        "nome_mae": "ANA PAULA FELICIO DA SILVA",
        "genero": "Masculino",
        "profissao": "ESTUDANTE",
        "rua": "Avenida Maranh\u00e3o",
        "numero": "2816",
        "bairro": "Santos Dumont",
        "cidade": "Aracaju",
        "estado": "SE",
        "complemento": "CASA 1",
        "cep": "49087-420",
        "telefone": "7999320409",
        "celular": "79999320409",
        "created_at": "2020-06-08 20:06:57",
        "updated_at": "2020-06-08 20:45:55",
        "role_id": 6,
        "avatar": null
      }
    },
    {
      "id": 14,
      "porcentagem": "5.80",
      "valor": "5000.00",
      "tempo_contrato": 12,
      "inicio_mes": "2020-06-30",
      "final_mes": "2021-06-30",
      "ativo": true,
      "user_id": 3,
      "created_at": "2020-06-30 23:49:38",
      "updated_at": "2020-09-02 12:40:31",
      "tipo_contrato": "Simples",
      "numero_contrato": "140000",
      "agendamento_relatorio": "2020-10-01 00:00:00",
      "valor_atualizado": "5580.00",
      "user": {
        "id": 3,
        "name": "CARLOS ROBERTO SANTANA",
        "email": "carlynhos6@gmail.com",
        "email_verified_at": null,
        "ativo": true,
        "user_parent_id": 15,
        "rg": "1004069",
        "data_emissao": "2018-07-25 00:00:00",
        "orgao_emissor": "SSP/SE",
        "cpf": "51808013549",
        "data_nascimento": "1972-03-28 00:00:00",
        "estado_civil": "Casado",
        "nome_mae": "MARIA JOSE SANTANA",
        "genero": "Masculino",
        "profissao": "EMPRESARIO",
        "rua": "Avenida Maranh\u00e3o",
        "numero": "2816",
        "bairro": "Santos Dumont",
        "cidade": "Aracaju",
        "estado": "SE",
        "complemento": "de 1661/1662 ao fim",
        "cep": "49087-420",
        "telefone": "7900000000",
        "celular": "79999320409",
        "created_at": "2020-06-08 18:55:19",
        "updated_at": "2020-06-08 18:58:37",
        "role_id": 7,
        "avatar": null
      }
    },
    {
      "id": 15,
      "porcentagem": "5.80",
      "valor": "5000.00",
      "tempo_contrato": 12,
      "inicio_mes": "2020-06-30",
      "final_mes": "2021-06-30",
      "ativo": true,
      "user_id": 5,
      "created_at": "2020-06-30 23:50:21",
      "updated_at": "2020-09-02 12:40:31",
      "tipo_contrato": "Simples",
      "numero_contrato": "150000",
      "agendamento_relatorio": "2020-10-01 00:00:00",
      "valor_atualizado": "5580.00",
      "user": {
        "id": 5,
        "name": "RAY FELICIO SANTANA",
        "email": "rayfelicio1@gmail.com",
        "email_verified_at": null,
        "ativo": true,
        "user_parent_id": 3,
        "rg": "35313773",
        "data_emissao": "2019-01-09 00:00:00",
        "orgao_emissor": "SSP/SE",
        "cpf": "07350167555",
        "data_nascimento": "1997-07-19 00:00:00",
        "estado_civil": "Solteiro",
        "nome_mae": "ANA PAULA FELICIO DA SILVA",
        "genero": "Masculino",
        "profissao": "ESTUDANTE",
        "rua": "Avenida Maranh\u00e3o",
        "numero": "2816",
        "bairro": "Santos Dumont",
        "cidade": "Aracaju",
        "estado": "SE",
        "complemento": "CASA 1",
        "cep": "49087-420",
        "telefone": "7999320409",
        "celular": "79999320409",
        "created_at": "2020-06-08 20:06:57",
        "updated_at": "2020-06-08 20:45:55",
        "role_id": 6,
        "avatar": null
      }
    },
    {
      "id": 16,
      "porcentagem": "2.00",
      "valor": "10000.00",
      "tempo_contrato": 12,
      "inicio_mes": "2020-07-24",
      "final_mes": "2021-07-25",
      "ativo": true,
      "user_id": 23,
      "created_at": "2020-07-25 00:20:57",
      "updated_at": "2020-09-02 12:40:31",
      "tipo_contrato": "Simples",
      "numero_contrato": "160000",
      "agendamento_relatorio": "2020-10-01 00:00:00",
      "valor_atualizado": "10445.16",
      "user": {
        "id": 23,
        "name": "DANIEL AUGUSTO MOURA DE OLIVEIRA",
        "email": "daniel_moura_@hotmail.com",
        "email_verified_at": null,
        "ativo": true,
        "user_parent_id": 12,
        "rg": "7737824",
        "data_emissao": "2009-11-05 00:00:00",
        "orgao_emissor": "SSP PE",
        "cpf": "02684862125",
        "data_nascimento": "1991-07-22 00:00:00",
        "estado_civil": "Solteiro",
        "nome_mae": "RITA DE CASSIA REIS DE MOURA",
        "genero": "Masculino",
        "profissao": "CONTADOR",
        "rua": "Avenida das Arauc\u00e1rias",
        "numero": "4155",
        "bairro": "Sul (\u00c1guas Claras)",
        "cidade": "Bras\u00edlia",
        "estado": "DF",
        "complemento": "BL B APT 103",
        "cep": "71936-250",
        "telefone": "6100000000",
        "celular": "61999924808",
        "created_at": "2020-07-24 17:14:58",
        "updated_at": "2020-07-28 12:49:08",
        "role_id": 6,
        "avatar": null
      }
    },
    {
      "id": 17,
      "porcentagem": "5.80",
      "valor": "10000.00",
      "tempo_contrato": 12,
      "inicio_mes": "2020-08-11",
      "final_mes": "2021-08-11",
      "ativo": true,
      "user_id": 3,
      "created_at": "2020-08-11 03:23:58",
      "updated_at": "2020-09-02 12:40:30",
      "tipo_contrato": "Simples",
      "numero_contrato": "170811",
      "agendamento_relatorio": "2020-09-01 00:00:00",
      "valor_atualizado": "10374.19",
      "user": {
        "id": 3,
        "name": "CARLOS ROBERTO SANTANA",
        "email": "carlynhos6@gmail.com",
        "email_verified_at": null,
        "ativo": true,
        "user_parent_id": 15,
        "rg": "1004069",
        "data_emissao": "2018-07-25 00:00:00",
        "orgao_emissor": "SSP/SE",
        "cpf": "51808013549",
        "data_nascimento": "1972-03-28 00:00:00",
        "estado_civil": "Casado",
        "nome_mae": "MARIA JOSE SANTANA",
        "genero": "Masculino",
        "profissao": "EMPRESARIO",
        "rua": "Avenida Maranh\u00e3o",
        "numero": "2816",
        "bairro": "Santos Dumont",
        "cidade": "Aracaju",
        "estado": "SE",
        "complemento": "de 1661/1662 ao fim",
        "cep": "49087-420",
        "telefone": "7900000000",
        "celular": "79999320409",
        "created_at": "2020-06-08 18:55:19",
        "updated_at": "2020-06-08 18:58:37",
        "role_id": 7,
        "avatar": null
      }
    },
    {
      "id": 18,
      "porcentagem": "5.80",
      "valor": "10000.00",
      "tempo_contrato": 12,
      "inicio_mes": "2020-08-11",
      "final_mes": "2021-08-11",
      "ativo": true,
      "user_id": 5,
      "created_at": "2020-08-11 03:29:32",
      "updated_at": "2020-09-02 12:40:30",
      "tipo_contrato": "Simples",
      "numero_contrato": "180811",
      "agendamento_relatorio": "2020-09-01 00:00:00",
      "valor_atualizado": "10374.19",
      "user": {
        "id": 5,
        "name": "RAY FELICIO SANTANA",
        "email": "rayfelicio1@gmail.com",
        "email_verified_at": null,
        "ativo": true,
        "user_parent_id": 3,
        "rg": "35313773",
        "data_emissao": "2019-01-09 00:00:00",
        "orgao_emissor": "SSP/SE",
        "cpf": "07350167555",
        "data_nascimento": "1997-07-19 00:00:00",
        "estado_civil": "Solteiro",
        "nome_mae": "ANA PAULA FELICIO DA SILVA",
        "genero": "Masculino",
        "profissao": "ESTUDANTE",
        "rua": "Avenida Maranh\u00e3o",
        "numero": "2816",
        "bairro": "Santos Dumont",
        "cidade": "Aracaju",
        "estado": "SE",
        "complemento": "CASA 1",
        "cep": "49087-420",
        "telefone": "7999320409",
        "celular": "79999320409",
        "created_at": "2020-06-08 20:06:57",
        "updated_at": "2020-06-08 20:45:55",
        "role_id": 6,
        "avatar": null
      }
    }
  ],
  "first_page_url": "http://automacao-service.herokuapp.com/api/produto?page=1",
  "from": 1,
  "last_page": 4,
  "last_page_url": "http://automacao-service.herokuapp.com/api/produto?page=4",
  "next_page_url": "http://automacao-service.herokuapp.com/api/produto?page=2",
  "path": "http://automacao-service.herokuapp.com/api/produto",
  "per_page": 10,
  "prev_page_url": null,
  "to": 10,
  "total": 32
}
